{
	"count": 36,
	"next": "https://swapi.dev/api/starships/?page=3",
	"previous": "https://swapi.dev/api/starships/?page=1",
	"results": [
		{
			"name": "Slave 1",
			"model": "Firespray-31-class patrol and attack",
			"manufacturer": "Kuat Systems Engineering",
			"cost_in_credits": "unknown",
			"length": "21.5",
			"max_atmosphering_speed": "1000",
			"crew": "1",
			"passengers": "6",
			"cargo_capacity": "70000",
			"consumables": "1 month",
			"hyperdrive_rating": "3.0",
			"MGLT": "70",
			"starship_class": "Patrol craft",
			"pilots": [
				"https://swapi.dev/api/people/22/"
			],
			"films": [
				"https://swapi.dev/api/films/2/",
				"https://swapi.dev/api/films/5/"
			],
			"created": "2014-12-15T13:00:56.332000Z",
			"edited": "2014-12-20T21:23:49.897000Z",
			"url": "https://swapi.dev/api/starships/21/"
		},
		{
			"name": "Imperial shuttle",
			"model": "Lambda-class T-4a shuttle",
			"manufacturer": "Sienar Fleet Systems",
			"cost_in_credits": "240000",
			"length": "20",
			"max_atmosphering_speed": "850",
			"crew": "6",
			"passengers": "20",
			"cargo_capacity": "80000",
			"consumables": "2 months",
			"hyperdrive_rating": "1.0",
			"MGLT": "50",
			"starship_class": "Armed government transport",
			"pilots": [
				"https://swapi.dev/api/people/1/",
				"https://swapi.dev/api/people/13/",
				"https://swapi.dev/api/people/14/"
			],
			"films": [
				"https://swapi.dev/api/films/2/",
				"https://swapi.dev/api/films/3/"
			],
			"created": "2014-12-15T13:04:47.235000Z",
			"edited": "2014-12-20T21:23:49.900000Z",
			"url": "https://swapi.dev/api/starships/22/"
		},
		{
			"name": "EF76 Nebulon-B escort frigate",
			"model": "EF76 Nebulon-B escort frigate",
			"manufacturer": "Kuat Drive Yards",
			"cost_in_credits": "8500000",
			"length": "300",
			"max_atmosphering_speed": "800",
			"crew": "854",
			"passengers": "75",
			"cargo_capacity": "6000000",
			"consumables": "2 years",
			"hyperdrive_rating": "2.0",
			"MGLT": "40",
			"starship_class": "Escort ship",
			"pilots": [],
			"films": [
				"https://swapi.dev/api/films/2/",
				"https://swapi.dev/api/films/3/"
			],
			"created": "2014-12-15T13:06:30.813000Z",
			"edited": "2014-12-20T21:23:49.902000Z",
			"url": "https://swapi.dev/api/starships/23/"
		},
		{
			"name": "Calamari Cruiser",
			"model": "MC80 Liberty type Star Cruiser",
			"manufacturer": "Mon Calamari shipyards",
			"cost_in_credits": "104000000",
			"length": "1200",
			"max_atmosphering_speed": "n/a",
			"crew": "5400",
			"passengers": "1200",
			"cargo_capacity": "unknown",
			"consumables": "2 years",
			"hyperdrive_rating": "1.0",
			"MGLT": "60",
			"starship_class": "Star Cruiser",
			"pilots": [],
			"films": [
				"https://swapi.dev/api/films/3/"
			],
			"created": "2014-12-18T10:54:57.804000Z",
			"edited": "2014-12-20T21:23:49.904000Z",
			"url": "https://swapi.dev/api/starships/27/"
		},
		{
			"name": "A-wing",
			"model": "RZ-1 A-wing Interceptor",
			"manufacturer": "Alliance Underground Engineering, Incom Corporation",
			"cost_in_credits": "175000",
			"length": "9.6",
			"max_atmosphering_speed": "1300",
			"crew": "1",
			"passengers": "0",
			"cargo_capacity": "40",
			"consumables": "1 week",
			"hyperdrive_rating": "1.0",
			"MGLT": "120",
			"starship_class": "Starfighter",
			"pilots": [
				"https://swapi.dev/api/people/29/"
			],
			"films": [
				"https://swapi.dev/api/films/3/"
			],
			"created": "2014-12-18T11:16:34.542000Z",
			"edited": "2014-12-20T21:23:49.907000Z",
			"url": "https://swapi.dev/api/starships/28/"
		},
		{
			"name": "B-wing",
			"model": "A/SF-01 B-wing starfighter",
			"manufacturer": "Slayn & Korpil",
			"cost_in_credits": "220000",
			"length": "16.9",
			"max_atmosphering_speed": "950",
			"crew": "1",
			"passengers": "0",
			"cargo_capacity": "45",
			"consumables": "1 week",
			"hyperdrive_rating": "2.0",
			"MGLT": "91",
			"starship_class": "Assault Starfighter",
			"pilots": [],
			"films": [
				"https://swapi.dev/api/films/3/"
			],
			"created": "2014-12-18T11:18:04.763000Z",
			"edited": "2014-12-20T21:23:49.909000Z",
			"url": "https://swapi.dev/api/starships/29/"
		},
		{
			"name": "Republic Cruiser",
			"model": "Consular-class cruiser",
			"manufacturer": "Corellian Engineering Corporation",
			"cost_in_credits": "unknown",
			"length": "115",
			"max_atmosphering_speed": "900",
			"crew": "9",
			"passengers": "16",
			"cargo_capacity": "unknown",
			"consumables": "unknown",
			"hyperdrive_rating": "2.0",
			"MGLT": "unknown",
			"starship_class": "Space cruiser",
			"pilots": [],
			"films": [
				"https://swapi.dev/api/films/4/"
			],
			"created": "2014-12-19T17:01:31.488000Z",
			"edited": "2014-12-20T21:23:49.912000Z",
			"url": "https://swapi.dev/api/starships/31/"
		},
		{
			"name": "Droid control ship",
			"model": "Lucrehulk-class Droid Control Ship",
			"manufacturer": "Hoersch-Kessel Drive, Inc.",
			"cost_in_credits": "unknown",
			"length": "3170",
			"max_atmosphering_speed": "n/a",
			"crew": "175",
			"passengers": "139000",
			"cargo_capacity": "4000000000",
			"consumables": "500 days",
			"hyperdrive_rating": "2.0",
			"MGLT": "unknown",
			"starship_class": "Droid control ship",
			"pilots": [],
			"films": [
				"https://swapi.dev/api/films/4/",
				"https://swapi.dev/api/films/5/",
				"https://swapi.dev/api/films/6/"
			],
			"created": "2014-12-19T17:04:06.323000Z",
			"edited": "2014-12-20T21:23:49.915000Z",
			"url": "https://swapi.dev/api/starships/32/"
		},
		{
			"name": "Naboo fighter",
			"model": "N-1 starfighter",
			"manufacturer": "Theed Palace Space Vessel Engineering Corps",
			"cost_in_credits": "200000",
			"length": "11",
			"max_atmosphering_speed": "1100",
			"crew": "1",
			"passengers": "0",
			"cargo_capacity": "65",
			"consumables": "7 days",
			"hyperdrive_rating": "1.0",
			"MGLT": "unknown",
			"starship_class": "Starfighter",
			"pilots": [
				"https://swapi.dev/api/people/11/",
				"https://swapi.dev/api/people/35/",
				"https://swapi.dev/api/people/60/"
			],
			"films": [
				"https://swapi.dev/api/films/4/",
				"https://swapi.dev/api/films/5/"
			],
			"created": "2014-12-19T17:39:17.582000Z",
			"edited": "2014-12-20T21:23:49.917000Z",
			"url": "https://swapi.dev/api/starships/39/"
		},
		{
			"name": "Naboo Royal Starship",
			"model": "J-type 327 Nubian royal starship",
			"manufacturer": "Theed Palace Space Vessel Engineering Corps, Nubia Star Drives",
			"cost_in_credits": "unknown",
			"length": "76",
			"max_atmosphering_speed": "920",
			"crew": "8",
			"passengers": "unknown",
			"cargo_capacity": "unknown",
			"consumables": "unknown",
			"hyperdrive_rating": "1.8",
			"MGLT": "unknown",
			"starship_class": "yacht",
			"pilots": [
				"https://swapi.dev/api/people/39/"
			],
			"films": [
				"https://swapi.dev/api/films/4/"
			],
			"created": "2014-12-19T17:45:03.506000Z",
			"edited": "2014-12-20T21:23:49.919000Z",
			"url": "https://swapi.dev/api/starships/40/"
		}
	]
}